^C:\USERS\FAUST\SOURCE\REPOS\DIRECT3D WIN32 GAME2\PCH.CPP
/c /I"C:\USERS\FAUST\SOURCE\REPOS\DIRECT3D WIN32 GAME2\PACKAGES\DIRECTXTK_DESKTOP_2017.2021.11.8.1\BUILD\NATIVE\..\..\INCLUDE" /I"C:\USERS\FAUST\SOURCE\REPOS\DIRECT3D WIN32 GAME2\PACKAGES\MICROSOFT.XAUDIO2.REDIST.1.2.8\BUILD\NATIVE\INCLUDE" /I"C:\USERS\FAUST\SOURCE\REPOS\DIRECT3D WIN32 GAME2\\" /ZI /JMC /nologo /W4 /WX- /diagnostics:column /Od /Oy- /D HAS_DIRECTXTK /D USING_XAUDIO2_REDIST /D WIN32 /D _DEBUG /D _WINDOWS /D _UNICODE /D UNICODE /Gm- /EHsc /RTC1 /MDd /GS /arch:SSE2 /fp:fast /Zc:wchar_t /Zc:forScope /Zc:inline /Yc"pch.h" /Fp"DEBUG\DIRECT3D WIN32 GAME2.PCH" /Fo"DEBUG\\" /Fd"DEBUG\VC142.PDB" /external:W4 /Gd /TP /analyze- /FC C:\USERS\FAUST\SOURCE\REPOS\DIRECT3D WIN32 GAME2\PCH.CPP
^C:\USERS\FAUST\SOURCE\REPOS\DIRECT3D WIN32 GAME2\DEVICERESOURCES.CPP
/c /I"C:\USERS\FAUST\SOURCE\REPOS\DIRECT3D WIN32 GAME2\PACKAGES\DIRECTXTK_DESKTOP_2017.2021.11.8.1\BUILD\NATIVE\..\..\INCLUDE" /I"C:\USERS\FAUST\SOURCE\REPOS\DIRECT3D WIN32 GAME2\PACKAGES\MICROSOFT.XAUDIO2.REDIST.1.2.8\BUILD\NATIVE\INCLUDE" /I"C:\USERS\FAUST\SOURCE\REPOS\DIRECT3D WIN32 GAME2\\" /ZI /JMC /nologo /W4 /WX- /diagnostics:column /Od /Oy- /D HAS_DIRECTXTK /D USING_XAUDIO2_REDIST /D WIN32 /D _DEBUG /D _WINDOWS /D _UNICODE /D UNICODE /Gm- /EHsc /RTC1 /MDd /GS /arch:SSE2 /fp:fast /Zc:wchar_t /Zc:forScope /Zc:inline /Yu"pch.h" /Fp"DEBUG\DIRECT3D WIN32 GAME2.PCH" /Fo"DEBUG\\" /Fd"DEBUG\VC142.PDB" /external:W4 /Gd /TP /analyze- /FC C:\USERS\FAUST\SOURCE\REPOS\DIRECT3D WIN32 GAME2\DEVICERESOURCES.CPP
^C:\USERS\FAUST\SOURCE\REPOS\DIRECT3D WIN32 GAME2\GAMEOBJECTBASE.CPP
/c /I"C:\USERS\FAUST\SOURCE\REPOS\DIRECT3D WIN32 GAME2\PACKAGES\DIRECTXTK_DESKTOP_2017.2021.11.8.1\BUILD\NATIVE\..\..\INCLUDE" /I"C:\USERS\FAUST\SOURCE\REPOS\DIRECT3D WIN32 GAME2\PACKAGES\MICROSOFT.XAUDIO2.REDIST.1.2.8\BUILD\NATIVE\INCLUDE" /I"C:\USERS\FAUST\SOURCE\REPOS\DIRECT3D WIN32 GAME2\\" /ZI /JMC /nologo /W4 /WX- /diagnostics:column /Od /Oy- /D HAS_DIRECTXTK /D USING_XAUDIO2_REDIST /D WIN32 /D _DEBUG /D _WINDOWS /D _UNICODE /D UNICODE /Gm- /EHsc /RTC1 /MDd /GS /arch:SSE2 /fp:fast /Zc:wchar_t /Zc:forScope /Zc:inline /Yu"pch.h" /Fp"DEBUG\DIRECT3D WIN32 GAME2.PCH" /Fo"DEBUG\\" /Fd"DEBUG\VC142.PDB" /external:W4 /Gd /TP /analyze- /FC C:\USERS\FAUST\SOURCE\REPOS\DIRECT3D WIN32 GAME2\GAMEOBJECTBASE.CPP
^C:\USERS\FAUST\SOURCE\REPOS\DIRECT3D WIN32 GAME2\MAIN.CPP
/c /I"C:\USERS\FAUST\SOURCE\REPOS\DIRECT3D WIN32 GAME2\PACKAGES\DIRECTXTK_DESKTOP_2017.2021.11.8.1\BUILD\NATIVE\..\..\INCLUDE" /I"C:\USERS\FAUST\SOURCE\REPOS\DIRECT3D WIN32 GAME2\PACKAGES\MICROSOFT.XAUDIO2.REDIST.1.2.8\BUILD\NATIVE\INCLUDE" /I"C:\USERS\FAUST\SOURCE\REPOS\DIRECT3D WIN32 GAME2\\" /ZI /JMC /nologo /W4 /WX- /diagnostics:column /Od /Oy- /D HAS_DIRECTXTK /D USING_XAUDIO2_REDIST /D WIN32 /D _DEBUG /D _WINDOWS /D _UNICODE /D UNICODE /Gm- /EHsc /RTC1 /MDd /GS /arch:SSE2 /fp:fast /Zc:wchar_t /Zc:forScope /Zc:inline /Yu"pch.h" /Fp"DEBUG\DIRECT3D WIN32 GAME2.PCH" /Fo"DEBUG\\" /Fd"DEBUG\VC142.PDB" /external:W4 /Gd /TP /analyze- /FC C:\USERS\FAUST\SOURCE\REPOS\DIRECT3D WIN32 GAME2\MAIN.CPP
^C:\USERS\FAUST\SOURCE\REPOS\DIRECT3D WIN32 GAME2\BALL.CPP
/c /I"C:\USERS\FAUST\SOURCE\REPOS\DIRECT3D WIN32 GAME2\PACKAGES\DIRECTXTK_DESKTOP_2017.2021.11.8.1\BUILD\NATIVE\..\..\INCLUDE" /I"C:\USERS\FAUST\SOURCE\REPOS\DIRECT3D WIN32 GAME2\PACKAGES\MICROSOFT.XAUDIO2.REDIST.1.2.8\BUILD\NATIVE\INCLUDE" /I"C:\USERS\FAUST\SOURCE\REPOS\DIRECT3D WIN32 GAME2\\" /ZI /JMC /nologo /W4 /WX- /diagnostics:column /Od /Oy- /D HAS_DIRECTXTK /D USING_XAUDIO2_REDIST /D WIN32 /D _DEBUG /D _WINDOWS /D _UNICODE /D UNICODE /Gm- /EHsc /RTC1 /MDd /GS /arch:SSE2 /fp:fast /Zc:wchar_t /Zc:forScope /Zc:inline /Yu"pch.h" /Fp"DEBUG\DIRECT3D WIN32 GAME2.PCH" /Fo"DEBUG\\" /Fd"DEBUG\VC142.PDB" /external:W4 /Gd /TP /analyze- /FC C:\USERS\FAUST\SOURCE\REPOS\DIRECT3D WIN32 GAME2\BALL.CPP
^C:\USERS\FAUST\SOURCE\REPOS\DIRECT3D WIN32 GAME2\GAME.CPP
/c /I"C:\USERS\FAUST\SOURCE\REPOS\DIRECT3D WIN32 GAME2\PACKAGES\DIRECTXTK_DESKTOP_2017.2021.11.8.1\BUILD\NATIVE\..\..\INCLUDE" /I"C:\USERS\FAUST\SOURCE\REPOS\DIRECT3D WIN32 GAME2\PACKAGES\MICROSOFT.XAUDIO2.REDIST.1.2.8\BUILD\NATIVE\INCLUDE" /I"C:\USERS\FAUST\SOURCE\REPOS\DIRECT3D WIN32 GAME2\\" /ZI /JMC /nologo /W4 /WX- /diagnostics:column /Od /Oy- /D HAS_DIRECTXTK /D USING_XAUDIO2_REDIST /D WIN32 /D _DEBUG /D _WINDOWS /D _UNICODE /D UNICODE /Gm- /EHsc /RTC1 /MDd /GS /arch:SSE2 /fp:fast /Zc:wchar_t /Zc:forScope /Zc:inline /Yu"pch.h" /Fp"DEBUG\DIRECT3D WIN32 GAME2.PCH" /Fo"DEBUG\\" /Fd"DEBUG\VC142.PDB" /external:W4 /Gd /TP /analyze- /FC C:\USERS\FAUST\SOURCE\REPOS\DIRECT3D WIN32 GAME2\GAME.CPP
^C:\USERS\FAUST\SOURCE\REPOS\DIRECT3D WIN32 GAME2\GAMECOLLIDER.CPP
/c /I"C:\USERS\FAUST\SOURCE\REPOS\DIRECT3D WIN32 GAME2\PACKAGES\DIRECTXTK_DESKTOP_2017.2021.11.8.1\BUILD\NATIVE\..\..\INCLUDE" /I"C:\USERS\FAUST\SOURCE\REPOS\DIRECT3D WIN32 GAME2\PACKAGES\MICROSOFT.XAUDIO2.REDIST.1.2.8\BUILD\NATIVE\INCLUDE" /I"C:\USERS\FAUST\SOURCE\REPOS\DIRECT3D WIN32 GAME2\\" /ZI /JMC /nologo /W4 /WX- /diagnostics:column /Od /Oy- /D HAS_DIRECTXTK /D USING_XAUDIO2_REDIST /D WIN32 /D _DEBUG /D _WINDOWS /D _UNICODE /D UNICODE /Gm- /EHsc /RTC1 /MDd /GS /arch:SSE2 /fp:fast /Zc:wchar_t /Zc:forScope /Zc:inline /Yu"pch.h" /Fp"DEBUG\DIRECT3D WIN32 GAME2.PCH" /Fo"DEBUG\\" /Fd"DEBUG\VC142.PDB" /external:W4 /Gd /TP /analyze- /FC C:\USERS\FAUST\SOURCE\REPOS\DIRECT3D WIN32 GAME2\GAMECOLLIDER.CPP
^C:\USERS\FAUST\SOURCE\REPOS\DIRECT3D WIN32 GAME2\GAMEFIELD.CPP
/c /I"C:\USERS\FAUST\SOURCE\REPOS\DIRECT3D WIN32 GAME2\PACKAGES\DIRECTXTK_DESKTOP_2017.2021.11.8.1\BUILD\NATIVE\..\..\INCLUDE" /I"C:\USERS\FAUST\SOURCE\REPOS\DIRECT3D WIN32 GAME2\PACKAGES\MICROSOFT.XAUDIO2.REDIST.1.2.8\BUILD\NATIVE\INCLUDE" /I"C:\USERS\FAUST\SOURCE\REPOS\DIRECT3D WIN32 GAME2\\" /ZI /JMC /nologo /W4 /WX- /diagnostics:column /Od /Oy- /D HAS_DIRECTXTK /D USING_XAUDIO2_REDIST /D WIN32 /D _DEBUG /D _WINDOWS /D _UNICODE /D UNICODE /Gm- /EHsc /RTC1 /MDd /GS /arch:SSE2 /fp:fast /Zc:wchar_t /Zc:forScope /Zc:inline /Yu"pch.h" /Fp"DEBUG\DIRECT3D WIN32 GAME2.PCH" /Fo"DEBUG\\" /Fd"DEBUG\VC142.PDB" /external:W4 /Gd /TP /analyze- /FC C:\USERS\FAUST\SOURCE\REPOS\DIRECT3D WIN32 GAME2\GAMEFIELD.CPP
^C:\USERS\FAUST\SOURCE\REPOS\DIRECT3D WIN32 GAME2\GAMEOBJECT.CPP
/c /I"C:\USERS\FAUST\SOURCE\REPOS\DIRECT3D WIN32 GAME2\PACKAGES\DIRECTXTK_DESKTOP_2017.2021.11.8.1\BUILD\NATIVE\..\..\INCLUDE" /I"C:\USERS\FAUST\SOURCE\REPOS\DIRECT3D WIN32 GAME2\PACKAGES\MICROSOFT.XAUDIO2.REDIST.1.2.8\BUILD\NATIVE\INCLUDE" /I"C:\USERS\FAUST\SOURCE\REPOS\DIRECT3D WIN32 GAME2\\" /ZI /JMC /nologo /W4 /WX- /diagnostics:column /Od /Oy- /D HAS_DIRECTXTK /D USING_XAUDIO2_REDIST /D WIN32 /D _DEBUG /D _WINDOWS /D _UNICODE /D UNICODE /Gm- /EHsc /RTC1 /MDd /GS /arch:SSE2 /fp:fast /Zc:wchar_t /Zc:forScope /Zc:inline /Yu"pch.h" /Fp"DEBUG\DIRECT3D WIN32 GAME2.PCH" /Fo"DEBUG\\" /Fd"DEBUG\VC142.PDB" /external:W4 /Gd /TP /analyze- /FC C:\USERS\FAUST\SOURCE\REPOS\DIRECT3D WIN32 GAME2\GAMEOBJECT.CPP
^C:\USERS\FAUST\SOURCE\REPOS\DIRECT3D WIN32 GAME2\SCORE.CPP
/c /I"C:\USERS\FAUST\SOURCE\REPOS\DIRECT3D WIN32 GAME2\PACKAGES\DIRECTXTK_DESKTOP_2017.2021.11.8.1\BUILD\NATIVE\..\..\INCLUDE" /I"C:\USERS\FAUST\SOURCE\REPOS\DIRECT3D WIN32 GAME2\PACKAGES\MICROSOFT.XAUDIO2.REDIST.1.2.8\BUILD\NATIVE\INCLUDE" /I"C:\USERS\FAUST\SOURCE\REPOS\DIRECT3D WIN32 GAME2\\" /ZI /JMC /nologo /W4 /WX- /diagnostics:column /Od /Oy- /D HAS_DIRECTXTK /D USING_XAUDIO2_REDIST /D WIN32 /D _DEBUG /D _WINDOWS /D _UNICODE /D UNICODE /Gm- /EHsc /RTC1 /MDd /GS /arch:SSE2 /fp:fast /Zc:wchar_t /Zc:forScope /Zc:inline /Yu"pch.h" /Fp"DEBUG\DIRECT3D WIN32 GAME2.PCH" /Fo"DEBUG\\" /Fd"DEBUG\VC142.PDB" /external:W4 /Gd /TP /analyze- /FC C:\USERS\FAUST\SOURCE\REPOS\DIRECT3D WIN32 GAME2\SCORE.CPP
^C:\USERS\FAUST\SOURCE\REPOS\DIRECT3D WIN32 GAME2\BRICK.CPP
/c /I"C:\USERS\FAUST\SOURCE\REPOS\DIRECT3D WIN32 GAME2\PACKAGES\DIRECTXTK_DESKTOP_2017.2021.11.8.1\BUILD\NATIVE\..\..\INCLUDE" /I"C:\USERS\FAUST\SOURCE\REPOS\DIRECT3D WIN32 GAME2\PACKAGES\MICROSOFT.XAUDIO2.REDIST.1.2.8\BUILD\NATIVE\INCLUDE" /I"C:\USERS\FAUST\SOURCE\REPOS\DIRECT3D WIN32 GAME2\\" /ZI /JMC /nologo /W4 /WX- /diagnostics:column /Od /Oy- /D HAS_DIRECTXTK /D USING_XAUDIO2_REDIST /D WIN32 /D _DEBUG /D _WINDOWS /D _UNICODE /D UNICODE /Gm- /EHsc /RTC1 /MDd /GS /arch:SSE2 /fp:fast /Zc:wchar_t /Zc:forScope /Zc:inline /Yu"pch.h" /Fp"DEBUG\DIRECT3D WIN32 GAME2.PCH" /Fo"DEBUG\\" /Fd"DEBUG\VC142.PDB" /external:W4 /Gd /TP /analyze- /FC C:\USERS\FAUST\SOURCE\REPOS\DIRECT3D WIN32 GAME2\BRICK.CPP
^C:\USERS\FAUST\SOURCE\REPOS\DIRECT3D WIN32 GAME2\GAMEMANAGER.CPP
/c /I"C:\USERS\FAUST\SOURCE\REPOS\DIRECT3D WIN32 GAME2\PACKAGES\DIRECTXTK_DESKTOP_2017.2021.11.8.1\BUILD\NATIVE\..\..\INCLUDE" /I"C:\USERS\FAUST\SOURCE\REPOS\DIRECT3D WIN32 GAME2\PACKAGES\MICROSOFT.XAUDIO2.REDIST.1.2.8\BUILD\NATIVE\INCLUDE" /I"C:\USERS\FAUST\SOURCE\REPOS\DIRECT3D WIN32 GAME2\\" /ZI /JMC /nologo /W4 /WX- /diagnostics:column /Od /Oy- /D HAS_DIRECTXTK /D USING_XAUDIO2_REDIST /D WIN32 /D _DEBUG /D _WINDOWS /D _UNICODE /D UNICODE /Gm- /EHsc /RTC1 /MDd /GS /arch:SSE2 /fp:fast /Zc:wchar_t /Zc:forScope /Zc:inline /Yu"pch.h" /Fp"DEBUG\DIRECT3D WIN32 GAME2.PCH" /Fo"DEBUG\\" /Fd"DEBUG\VC142.PDB" /external:W4 /Gd /TP /analyze- /FC C:\USERS\FAUST\SOURCE\REPOS\DIRECT3D WIN32 GAME2\GAMEMANAGER.CPP
