^C:\Users\faust\source\repos\Direct3D Win32 Game2\Direct3D Win32 Game2.vcxproj
C:\Users\faust\source\repos\Direct3D Win32 Game2\Debug\xapobaseredist.pdb
C:\Users\faust\source\repos\Direct3D Win32 Game2\Debug\xaudio2_9redist.pdb
C:\Users\faust\source\repos\Direct3D Win32 Game2\Debug\xaudio2_9redist.dll
